{
  "routes": [
    {
      "method": "GET",
      "path": "/sessoes",
      "handler": "sessoes.find",
      "config": {
        "policies": []
      }
    },
    {
      "method": "GET",
      "path": "/sessoes/count",
      "handler": "sessoes.count",
      "config": {
        "policies": []
      }
    },
    {
      "method": "GET",
      "path": "/sessoes/:id",
      "handler": "sessoes.findOne",
      "config": {
        "policies": []
      }
    },
    {
      "method": "POST",
      "path": "/sessoes",
      "handler": "sessoes.create",
      "config": {
        "policies": []
      }
    },
    {
      "method": "PUT",
      "path": "/sessoes/:id",
      "handler": "sessoes.update",
      "config": {
        "policies": []
      }
    },
    {
      "method": "DELETE",
      "path": "/sessoes/:id",
      "handler": "sessoes.delete",
      "config": {
        "policies": []
      }
    }
  ]
}
